{
"data": [{"Filename": ".gitignore", "sha256" : "14"},
{"Filename": "ccs.json", "sha256" : "142406"},
{"Filename": "makemanifest.py", "sha256" : "816"},
{"Filename": "creativetools/aepic.dll", "sha256" : "627608"},
{"Filename": "creativetools/avcodec-55.dll", "sha256" : "17098752"},
{"Filename": "creativetools/avdevice-55.dll", "sha256" : "1241600"},
{"Filename": "creativetools/avfilter-3.dll", "sha256" : "1989120"},
{"Filename": "creativetools/avformat-55.dll", "sha256" : "5137920"},
{"Filename": "creativetools/avutil-52.dll", "sha256" : "356352"},
{"Filename": "creativetools/bcp47mrm.dll", "sha256" : "158144"},
{"Filename": "creativetools/cg.dll", "sha256" : "12211520"},
{"Filename": "creativetools/cgD3D9.dll", "sha256" : "1260864"},
{"Filename": "creativetools/cgGL.dll", "sha256" : "439104"},
{"Filename": "creativetools/chakra.dll", "sha256" : "7581696"},
{"Filename": "creativetools/cldapi.dll", "sha256" : "99840"},
{"Filename": "creativetools/concrt140.dll", "sha256" : "344712"},
{"Filename": "creativetools/contactactivation.dll", "sha256" : "58880"},
{"Filename": "creativetools/coremessaging.dll", "sha256" : "885880"},
{"Filename": "creativetools/coreuicomponents.dll", "sha256" : "3283408"},
{"Filename": "creativetools/CreativeTools.exe", "sha256" : "18015232"},
{"Filename": "creativetools/cryptnet.dll", "sha256" : "167936"},
{"Filename": "creativetools/cryptngc.dll", "sha256" : "454656"},
{"Filename": "creativetools/crypttpmeksvc.dll", "sha256" : "61952"},
{"Filename": "creativetools/d3d12.dll", "sha256" : "1613200"},
{"Filename": "creativetools/d3dscache.dll", "sha256" : "150016"},
{"Filename": "creativetools/dbgcore.dll", "sha256" : "152576"},
{"Filename": "creativetools/dbgeng.dll", "sha256" : "5951488"},
{"Filename": "creativetools/dbgmodel.dll", "sha256" : "679424"},
{"Filename": "creativetools/dmenterprisediagnostics.dll", "sha256" : "300544"},
{"Filename": "creativetools/dsclient.dll", "sha256" : "51224"},
{"Filename": "creativetools/dsreg.dll", "sha256" : "735744"},
{"Filename": "creativetools/dxilconv.dll", "sha256" : "1232896"},
{"Filename": "creativetools/edgeiso.dll", "sha256" : "505344"},
{"Filename": "creativetools/edpauditapi.dll", "sha256" : "136704"},
{"Filename": "creativetools/edputil.dll", "sha256" : "257024"},
{"Filename": "creativetools/efscore.dll", "sha256" : "1076128"},
{"Filename": "creativetools/efswrt.dll", "sha256" : "708096"},
{"Filename": "creativetools/fmodex64.dll", "sha256" : "1503232"},
{"Filename": "creativetools/fmodexL64.dll", "sha256" : "1552384"},
{"Filename": "creativetools/fwbase.dll", "sha256" : "154624"},
{"Filename": "creativetools/fwpolicyiomgr.dll", "sha256" : "216064"},
{"Filename": "creativetools/glut32.dll", "sha256" : "289792"},
{"Filename": "creativetools/hid.dll", "sha256" : "34816"},
{"Filename": "creativetools/ieapfltr.dll", "sha256" : "1586176"},
{"Filename": "creativetools/libp3assimp.dll", "sha256" : "4865536"},
{"Filename": "creativetools/libp3direct.dll", "sha256" : "274944"},
{"Filename": "creativetools/libp3dtool.dll", "sha256" : "433152"},
{"Filename": "creativetools/libp3dtoolconfig.dll", "sha256" : "1224192"},
{"Filename": "creativetools/libp3ffmpeg.dll", "sha256" : "89600"},
{"Filename": "creativetools/libp3fmod_audio.dll", "sha256" : "91136"},
{"Filename": "creativetools/libp3framework.dll", "sha256" : "334336"},
{"Filename": "creativetools/libp3interrogatedb.dll", "sha256" : "220160"},
{"Filename": "creativetools/libp3openal_audio.dll", "sha256" : "677376"},
{"Filename": "creativetools/libp3ptloader.dll", "sha256" : "783360"},
{"Filename": "creativetools/libp3tinydisplay.dll", "sha256" : "10199040"},
{"Filename": "creativetools/libp3vision.dll", "sha256" : "124416"},
{"Filename": "creativetools/libp3vrpn.dll", "sha256" : "179200"},
{"Filename": "creativetools/libp3windisplay.dll", "sha256" : "128512"},
{"Filename": "creativetools/libpanda.dll", "sha256" : "15616512"},
{"Filename": "creativetools/libpandaai.dll", "sha256" : "138752"},
{"Filename": "creativetools/libpandabullet.dll", "sha256" : "1309696"},
{"Filename": "creativetools/libpandadx9.dll", "sha256" : "556032"},
{"Filename": "creativetools/libpandaegg.dll", "sha256" : "1389568"},
{"Filename": "creativetools/libpandaexpress.dll", "sha256" : "2596864"},
{"Filename": "creativetools/libpandafx.dll", "sha256" : "138240"},
{"Filename": "creativetools/libpandagl.dll", "sha256" : "607744"},
{"Filename": "creativetools/libpandaode.dll", "sha256" : "790528"},
{"Filename": "creativetools/libpandaphysics.dll", "sha256" : "411136"},
{"Filename": "creativetools/libpandaphysx.dll", "sha256" : "620544"},
{"Filename": "creativetools/libpandaskel.dll", "sha256" : "23552"},
{"Filename": "creativetools/lui.pyd", "sha256" : "849408"},
{"Filename": "creativetools/mi.dll", "sha256" : "123904"},
{"Filename": "creativetools/miutils.dll", "sha256" : "243200"},
{"Filename": "creativetools/msiso.dll", "sha256" : "302592"},
{"Filename": "creativetools/msvcp110_win.dll", "sha256" : "589912"},
{"Filename": "creativetools/msvcp140.dll", "sha256" : "633152"},
{"Filename": "creativetools/msvcp_win.dll", "sha256" : "642088"},
{"Filename": "creativetools/msvcrt.dll", "sha256" : "636936"},
{"Filename": "creativetools/ngcrecovery.dll", "sha256" : "193024"},
{"Filename": "creativetools/pkeyhelper.dll", "sha256" : "769648"},
{"Filename": "creativetools/policymanager.dll", "sha256" : "510384"},
{"Filename": "creativetools/postproc-52.dll", "sha256" : "187392"},
{"Filename": "creativetools/pyexpat.pyd", "sha256" : "187544"},
{"Filename": "creativetools/python36.dll", "sha256" : "3562648"},
{"Filename": "creativetools/resources.mf", "sha256" : "49587909"},
{"Filename": "creativetools/rmclient.dll", "sha256" : "131232"},
{"Filename": "creativetools/select.pyd", "sha256" : "26776"},
{"Filename": "creativetools/sqlite3.dll", "sha256" : "1124504"},
{"Filename": "creativetools/srpapi.dll", "sha256" : "144384"},
{"Filename": "creativetools/swresample-0.dll", "sha256" : "279040"},
{"Filename": "creativetools/swscale-2.dll", "sha256" : "396288"},
{"Filename": "creativetools/tcl86t.dll", "sha256" : "1666048"},
{"Filename": "creativetools/textinputframework.dll", "sha256" : "616800"},
{"Filename": "creativetools/tk86t.dll", "sha256" : "1967104"},
{"Filename": "creativetools/tpmcoreprovisioning.dll", "sha256" : "689152"},
{"Filename": "creativetools/unicodedata.pyd", "sha256" : "905880"},
{"Filename": "creativetools/userdatatypehelperutil.dll", "sha256" : "46080"},
{"Filename": "creativetools/vcruntime140.dll", "sha256" : "87888"},
{"Filename": "creativetools/webauthn.dll", "sha256" : "284160"},
{"Filename": "creativetools/wer.dll", "sha256" : "776880"},
{"Filename": "creativetools/win32u.dll", "sha256" : "124048"},
{"Filename": "creativetools/windowsperformancerecordercontrol.dll", "sha256" : "1143808"},
{"Filename": "creativetools/winipcfile.dll", "sha256" : "499200"},
{"Filename": "creativetools/winmsipc.dll", "sha256" : "2328064"},
{"Filename": "creativetools/wpaxholder.dll", "sha256" : "393216"},
{"Filename": "creativetools/wpcwebfilter.dll", "sha256" : "898560"},
{"Filename": "creativetools/wsock32.dll", "sha256" : "18432"},
{"Filename": "creativetools/wuceffects.dll", "sha256" : "208896"},
{"Filename": "creativetools/_asyncio.pyd", "sha256" : "60056"},
{"Filename": "creativetools/_bz2.pyd", "sha256" : "94360"},
{"Filename": "creativetools/_ctypes.pyd", "sha256" : "124568"},
{"Filename": "creativetools/_decimal.pyd", "sha256" : "267416"},
{"Filename": "creativetools/_elementtree.pyd", "sha256" : "162456"},
{"Filename": "creativetools/_hashlib.pyd", "sha256" : "1450648"},
{"Filename": "creativetools/_lzma.pyd", "sha256" : "254104"},
{"Filename": "creativetools/_msi.pyd", "sha256" : "38040"},
{"Filename": "creativetools/_multiprocessing.pyd", "sha256" : "29336"},
{"Filename": "creativetools/_overlapped.pyd", "sha256" : "42648"},
{"Filename": "creativetools/_socket.pyd", "sha256" : "72344"},
{"Filename": "creativetools/_sqlite3.pyd", "sha256" : "85144"},
{"Filename": "creativetools/_ssl.pyd", "sha256" : "1744024"},
{"Filename": "creativetools/_tkinter.pyd", "sha256" : "69272"},
{"Filename": "creativetools/audio/sfx/GUI_click.wav", "sha256" : "10412"},
{"Filename": "creativetools/audio/sfx/GUI_rollover.wav", "sha256" : "11564"},
{"Filename": "creativetools/etc/Confauto.prc", "sha256" : "6014"},
{"Filename": "creativetools/etc/Config.prc", "sha256" : "3325"},
{"Filename": "creativetools/panda3d/core.pyd", "sha256" : "11675136"},
{"Filename": "creativetools/panda3d/direct.pyd", "sha256" : "780800"},
{"Filename": "creativetools/panda3d/physics.pyd", "sha256" : "520192"},
{"Filename": "creativetools/resources/icon.ico", "sha256" : "2238"}
]}